<svg width="40" height="40" viewBox="0 0 40 40" fill="none" xmlns="http://www.w3.org/2000/svg">
<rect width="40" height="40" fill="#E5E5E5"/>
<rect width="1360" height="600" transform="translate(-60 -20)" fill="white"/>
<circle cx="20" cy="20" r="20" fill="#F9F9F9"/>
<path d="M24.5 19.5078V20.4922H17.4219L19.2031 22.2969L18.5 23L15.5 20L18.5 17L19.2031 17.7031L17.4219 19.5078H24.5Z" fill="#181818"/>
</svg>
